Data Cleaning for SNA
…
#oops! after doing left_join I realized there are many more observations
# than I expected. I remember from exploring the data that each school has
# ego_nids starting from 1. Let's check if that is true. 
# Let's see what I get if I group by school using a test object tmp
tmp <- group_by(AHS_nodes, commcnt)
tmp

## # A tibble: 32,274 x 38
## # Groups:   commcnt [85]
##    ego_nid commcnt sdummy mfnid_1 mfnid_2 mfnid_3 mfnid_4 mfnid_5 mfact_1
##      <int>   <int>  <int>   <int>   <int>   <int>   <int>   <int>   <int>
##  1       1       1      1      52   99999      NA      NA      NA       0
##  2       1       2      1   99999   99999      NA      NA      NA       1
##  3       1       3      1      10      22      23      24      29       0
##  4       1       4      1   99999      NA      NA      NA      NA       5
##  5       1       5      1   99999      38      90   99999     125       0
##  6       1       6      1      NA      NA      NA      NA      NA      NA
##  7       1       7      1     123     127     187   99999      NA       3
##  8       1       8      1   99999   99999      NA      NA      NA       1
##  9       1       9      1       2      24     104   99999     191       1
## 10       1      10      1      NA      NA      NA      NA      NA      NA
## # ... with 32,264 more rows, and 29 more variables: mfact_2 <int>,
## #   mfact_3 <int>, mfact_4 <int>, mfact_5 <int>, ffnid_1 <int>,
## #   ffnid_2 <int>, ffnid_3 <int>, ffnid_4 <int>, ffnid_5 <int>,
## #   ffact_1 <int>, ffact_2 <int>, ffact_3 <int>, ffact_4 <int>,
## #   ffact_5 <int>, race5 <int>, totnoms <int>, grade <int>, sex <int>,
## #   POP_BEH <dbl>, IDG <int>, PSICK_SS <dbl>, PSICK_H <dbl>,
## #   PSICK_L <dbl>, IDG_SS <int>, POP_BEH_SS <dbl>, PSMOKES <int>,
## #   PHADSEX <int>, FRNDSEX <int>, FRNDSMOKE <int>
…
